%YAML 1.1
%TAG !u! tag:unity3d.com,2011:
--- !u!114 &11400000
MonoBehaviour:
  m_ObjectHideFlags: 0
  m_CorrespondingSourceObject: {fileID: 0}
  m_PrefabInstance: {fileID: 0}
  m_PrefabAsset: {fileID: 0}
  m_GameObject: {fileID: 0}
  m_Enabled: 1
  m_EditorHideFlags: 0
  m_Script: {fileID: 11500000, guid: e41bf567dbb94093aff1b70f296bf248, type: 3}
  m_Name: Furniture2
  m_EditorClassIdentifier: 
  tileArray:
  - {fileID: 11400000, guid: 586b44201a5024ba4a942adc690f9761, type: 2}
  - {fileID: 11400000, guid: 4e998f36182b641918de6cf8d54449f0, type: 2}
  width: 1
  furnitureType: 3
  name: Toilet
