%YAML 1.1
%TAG !u! tag:unity3d.com,2011:
--- !u!114 &11400000
MonoBehaviour:
  m_ObjectHideFlags: 0
  m_CorrespondingSourceObject: {fileID: 0}
  m_PrefabInstance: {fileID: 0}
  m_PrefabAsset: {fileID: 0}
  m_GameObject: {fileID: 0}
  m_Enabled: 1
  m_EditorHideFlags: 0
  m_Script: {fileID: 11500000, guid: e41bf567dbb94093aff1b70f296bf248, type: 3}
  m_Name: Furniture10
  m_EditorClassIdentifier: 
  tileArray:
  - {fileID: 11400000, guid: 761450737ae8c4dae8ef26818d468ffb, type: 2}
  width: 1
  furnitureType: 6
  name: Chair1
