%YAML 1.1
%TAG !u! tag:unity3d.com,2011:
--- !u!1 &1297573780652862320
GameObject:
  m_ObjectHideFlags: 0
  m_CorrespondingSourceObject: {fileID: 0}
  m_PrefabInstance: {fileID: 0}
  m_PrefabAsset: {fileID: 0}
  serializedVersion: 6
  m_Component:
  - component: {fileID: 7448129329234374378}
  - component: {fileID: 2589995768377662280}
  - component: {fileID: 4623460439504268183}
  m_Layer: 31
  m_Name: Layer1
  m_TagString: Untagged
  m_Icon: {fileID: 0}
  m_NavMeshLayer: 0
  m_StaticEditorFlags: 0
  m_IsActive: 1
--- !u!4 &7448129329234374378
Transform:
  m_ObjectHideFlags: 0
  m_CorrespondingSourceObject: {fileID: 0}
  m_PrefabInstance: {fileID: 0}
  m_PrefabAsset: {fileID: 0}
  m_GameObject: {fileID: 1297573780652862320}
  m_LocalRotation: {x: -0, y: -0, z: -0, w: 1}
  m_LocalPosition: {x: 0, y: 0, z: 0}
  m_LocalScale: {x: 1, y: 1, z: 1}
  m_Children: []
  m_Father: {fileID: 915688239892500397}
  m_RootOrder: 0
  m_LocalEulerAnglesHint: {x: 0, y: 0, z: 0}
--- !u!1839735485 &2589995768377662280
Tilemap:
  m_ObjectHideFlags: 0
  m_CorrespondingSourceObject: {fileID: 0}
  m_PrefabInstance: {fileID: 0}
  m_PrefabAsset: {fileID: 0}
  m_GameObject: {fileID: 1297573780652862320}
  m_Enabled: 1
  m_Tiles:
  - first: {x: -1, y: -7, z: 0}
    second:
      m_TileIndex: 49
      m_TileSpriteIndex: 49
      m_TileMatrixIndex: 0
      m_TileColorIndex: 0
      m_ObjectToInstantiate: {fileID: 0}
      m_TileFlags: 1
      m_ColliderType: 1
  - first: {x: 0, y: -7, z: 0}
    second:
      m_TileIndex: 50
      m_TileSpriteIndex: 50
      m_TileMatrixIndex: 0
      m_TileColorIndex: 0
      m_ObjectToInstantiate: {fileID: 0}
      m_TileFlags: 1
      m_ColliderType: 1
  - first: {x: 1, y: -7, z: 0}
    second:
      m_TileIndex: 51
      m_TileSpriteIndex: 51
      m_TileMatrixIndex: 0
      m_TileColorIndex: 0
      m_ObjectToInstantiate: {fileID: 0}
      m_TileFlags: 1
      m_ColliderType: 1
  - first: {x: 2, y: -7, z: 0}
    second:
      m_TileIndex: 52
      m_TileSpriteIndex: 52
      m_TileMatrixIndex: 0
      m_TileColorIndex: 0
      m_ObjectToInstantiate: {fileID: 0}
      m_TileFlags: 1
      m_ColliderType: 1
  - first: {x: 3, y: -7, z: 0}
    second:
      m_TileIndex: 53
      m_TileSpriteIndex: 53
      m_TileMatrixIndex: 0
      m_TileColorIndex: 0
      m_ObjectToInstantiate: {fileID: 0}
      m_TileFlags: 1
      m_ColliderType: 1
  - first: {x: 4, y: -7, z: 0}
    second:
      m_TileIndex: 54
      m_TileSpriteIndex: 54
      m_TileMatrixIndex: 0
      m_TileColorIndex: 0
      m_ObjectToInstantiate: {fileID: 0}
      m_TileFlags: 1
      m_ColliderType: 1
  - first: {x: 5, y: -7, z: 0}
    second:
      m_TileIndex: 55
      m_TileSpriteIndex: 55
      m_TileMatrixIndex: 0
      m_TileColorIndex: 0
      m_ObjectToInstantiate: {fileID: 0}
      m_TileFlags: 1
      m_ColliderType: 1
  - first: {x: -1, y: -6, z: 0}
    second:
      m_TileIndex: 42
      m_TileSpriteIndex: 42
      m_TileMatrixIndex: 0
      m_TileColorIndex: 0
      m_ObjectToInstantiate: {fileID: 0}
      m_TileFlags: 1
      m_ColliderType: 1
  - first: {x: 0, y: -6, z: 0}
    second:
      m_TileIndex: 43
      m_TileSpriteIndex: 43
      m_TileMatrixIndex: 0
      m_TileColorIndex: 0
      m_ObjectToInstantiate: {fileID: 0}
      m_TileFlags: 1
      m_ColliderType: 1
  - first: {x: 1, y: -6, z: 0}
    second:
      m_TileIndex: 44
      m_TileSpriteIndex: 44
      m_TileMatrixIndex: 0
      m_TileColorIndex: 0
      m_ObjectToInstantiate: {fileID: 0}
      m_TileFlags: 1
      m_ColliderType: 1
  - first: {x: 2, y: -6, z: 0}
    second:
      m_TileIndex: 45
      m_TileSpriteIndex: 45
      m_TileMatrixIndex: 0
      m_TileColorIndex: 0
      m_ObjectToInstantiate: {fileID: 0}
      m_TileFlags: 1
      m_ColliderType: 1
  - first: {x: 3, y: -6, z: 0}
    second:
      m_TileIndex: 46
      m_TileSpriteIndex: 46
      m_TileMatrixIndex: 0
      m_TileColorIndex: 0
      m_ObjectToInstantiate: {fileID: 0}
      m_TileFlags: 1
      m_ColliderType: 1
  - first: {x: 4, y: -6, z: 0}
    second:
      m_TileIndex: 47
      m_TileSpriteIndex: 47
      m_TileMatrixIndex: 0
      m_TileColorIndex: 0
      m_ObjectToInstantiate: {fileID: 0}
      m_TileFlags: 1
      m_ColliderType: 1
  - first: {x: 5, y: -6, z: 0}
    second:
      m_TileIndex: 48
      m_TileSpriteIndex: 48
      m_TileMatrixIndex: 0
      m_TileColorIndex: 0
      m_ObjectToInstantiate: {fileID: 0}
      m_TileFlags: 1
      m_ColliderType: 1
  - first: {x: -1, y: -5, z: 0}
    second:
      m_TileIndex: 35
      m_TileSpriteIndex: 35
      m_TileMatrixIndex: 0
      m_TileColorIndex: 0
      m_ObjectToInstantiate: {fileID: 0}
      m_TileFlags: 1
      m_ColliderType: 1
  - first: {x: 0, y: -5, z: 0}
    second:
      m_TileIndex: 36
      m_TileSpriteIndex: 36
      m_TileMatrixIndex: 0
      m_TileColorIndex: 0
      m_ObjectToInstantiate: {fileID: 0}
      m_TileFlags: 1
      m_ColliderType: 1
  - first: {x: 1, y: -5, z: 0}
    second:
      m_TileIndex: 37
      m_TileSpriteIndex: 37
      m_TileMatrixIndex: 0
      m_TileColorIndex: 0
      m_ObjectToInstantiate: {fileID: 0}
      m_TileFlags: 1
      m_ColliderType: 1
  - first: {x: 2, y: -5, z: 0}
    second:
      m_TileIndex: 38
      m_TileSpriteIndex: 38
      m_TileMatrixIndex: 0
      m_TileColorIndex: 0
      m_ObjectToInstantiate: {fileID: 0}
      m_TileFlags: 1
      m_ColliderType: 1
  - first: {x: 3, y: -5, z: 0}
    second:
      m_TileIndex: 39
      m_TileSpriteIndex: 39
      m_TileMatrixIndex: 0
      m_TileColorIndex: 0
      m_ObjectToInstantiate: {fileID: 0}
      m_TileFlags: 1
      m_ColliderType: 1
  - first: {x: 4, y: -5, z: 0}
    second:
      m_TileIndex: 40
      m_TileSpriteIndex: 40
      m_TileMatrixIndex: 0
      m_TileColorIndex: 0
      m_ObjectToInstantiate: {fileID: 0}
      m_TileFlags: 1
      m_ColliderType: 1
  - first: {x: 5, y: -5, z: 0}
    second:
      m_TileIndex: 41
      m_TileSpriteIndex: 41
      m_TileMatrixIndex: 0
      m_TileColorIndex: 0
      m_ObjectToInstantiate: {fileID: 0}
      m_TileFlags: 1
      m_ColliderType: 1
  - first: {x: -1, y: -4, z: 0}
    second:
      m_TileIndex: 28
      m_TileSpriteIndex: 28
      m_TileMatrixIndex: 0
      m_TileColorIndex: 0
      m_ObjectToInstantiate: {fileID: 0}
      m_TileFlags: 1
      m_ColliderType: 1
  - first: {x: 0, y: -4, z: 0}
    second:
      m_TileIndex: 29
      m_TileSpriteIndex: 29
      m_TileMatrixIndex: 0
      m_TileColorIndex: 0
      m_ObjectToInstantiate: {fileID: 0}
      m_TileFlags: 1
      m_ColliderType: 1
  - first: {x: 1, y: -4, z: 0}
    second:
      m_TileIndex: 30
      m_TileSpriteIndex: 30
      m_TileMatrixIndex: 0
      m_TileColorIndex: 0
      m_ObjectToInstantiate: {fileID: 0}
      m_TileFlags: 1
      m_ColliderType: 1
  - first: {x: 2, y: -4, z: 0}
    second:
      m_TileIndex: 31
      m_TileSpriteIndex: 31
      m_TileMatrixIndex: 0
      m_TileColorIndex: 0
      m_ObjectToInstantiate: {fileID: 0}
      m_TileFlags: 1
      m_ColliderType: 1
  - first: {x: 3, y: -4, z: 0}
    second:
      m_TileIndex: 32
      m_TileSpriteIndex: 32
      m_TileMatrixIndex: 0
      m_TileColorIndex: 0
      m_ObjectToInstantiate: {fileID: 0}
      m_TileFlags: 1
      m_ColliderType: 1
  - first: {x: 4, y: -4, z: 0}
    second:
      m_TileIndex: 33
      m_TileSpriteIndex: 33
      m_TileMatrixIndex: 0
      m_TileColorIndex: 0
      m_ObjectToInstantiate: {fileID: 0}
      m_TileFlags: 1
      m_ColliderType: 1
  - first: {x: 5, y: -4, z: 0}
    second:
      m_TileIndex: 34
      m_TileSpriteIndex: 34
      m_TileMatrixIndex: 0
      m_TileColorIndex: 0
      m_ObjectToInstantiate: {fileID: 0}
      m_TileFlags: 1
      m_ColliderType: 1
  - first: {x: -1, y: -3, z: 0}
    second:
      m_TileIndex: 21
      m_TileSpriteIndex: 21
      m_TileMatrixIndex: 0
      m_TileColorIndex: 0
      m_ObjectToInstantiate: {fileID: 0}
      m_TileFlags: 1
      m_ColliderType: 1
  - first: {x: 0, y: -3, z: 0}
    second:
      m_TileIndex: 22
      m_TileSpriteIndex: 22
      m_TileMatrixIndex: 0
      m_TileColorIndex: 0
      m_ObjectToInstantiate: {fileID: 0}
      m_TileFlags: 1
      m_ColliderType: 1
  - first: {x: 1, y: -3, z: 0}
    second:
      m_TileIndex: 23
      m_TileSpriteIndex: 23
      m_TileMatrixIndex: 0
      m_TileColorIndex: 0
      m_ObjectToInstantiate: {fileID: 0}
      m_TileFlags: 1
      m_ColliderType: 1
  - first: {x: 2, y: -3, z: 0}
    second:
      m_TileIndex: 24
      m_TileSpriteIndex: 24
      m_TileMatrixIndex: 0
      m_TileColorIndex: 0
      m_ObjectToInstantiate: {fileID: 0}
      m_TileFlags: 1
      m_ColliderType: 1
  - first: {x: 3, y: -3, z: 0}
    second:
      m_TileIndex: 25
      m_TileSpriteIndex: 25
      m_TileMatrixIndex: 0
      m_TileColorIndex: 0
      m_ObjectToInstantiate: {fileID: 0}
      m_TileFlags: 1
      m_ColliderType: 1
  - first: {x: 4, y: -3, z: 0}
    second:
      m_TileIndex: 26
      m_TileSpriteIndex: 26
      m_TileMatrixIndex: 0
      m_TileColorIndex: 0
      m_ObjectToInstantiate: {fileID: 0}
      m_TileFlags: 1
      m_ColliderType: 1
  - first: {x: 5, y: -3, z: 0}
    second:
      m_TileIndex: 27
      m_TileSpriteIndex: 27
      m_TileMatrixIndex: 0
      m_TileColorIndex: 0
      m_ObjectToInstantiate: {fileID: 0}
      m_TileFlags: 1
      m_ColliderType: 1
  - first: {x: -1, y: -2, z: 0}
    second:
      m_TileIndex: 14
      m_TileSpriteIndex: 14
      m_TileMatrixIndex: 0
      m_TileColorIndex: 0
      m_ObjectToInstantiate: {fileID: 0}
      m_TileFlags: 1
      m_ColliderType: 1
  - first: {x: 0, y: -2, z: 0}
    second:
      m_TileIndex: 15
      m_TileSpriteIndex: 15
      m_TileMatrixIndex: 0
      m_TileColorIndex: 0
      m_ObjectToInstantiate: {fileID: 0}
      m_TileFlags: 1
      m_ColliderType: 1
  - first: {x: 1, y: -2, z: 0}
    second:
      m_TileIndex: 16
      m_TileSpriteIndex: 16
      m_TileMatrixIndex: 0
      m_TileColorIndex: 0
      m_ObjectToInstantiate: {fileID: 0}
      m_TileFlags: 1
      m_ColliderType: 1
  - first: {x: 2, y: -2, z: 0}
    second:
      m_TileIndex: 17
      m_TileSpriteIndex: 17
      m_TileMatrixIndex: 0
      m_TileColorIndex: 0
      m_ObjectToInstantiate: {fileID: 0}
      m_TileFlags: 1
      m_ColliderType: 1
  - first: {x: 3, y: -2, z: 0}
    second:
      m_TileIndex: 18
      m_TileSpriteIndex: 18
      m_TileMatrixIndex: 0
      m_TileColorIndex: 0
      m_ObjectToInstantiate: {fileID: 0}
      m_TileFlags: 1
      m_ColliderType: 1
  - first: {x: 4, y: -2, z: 0}
    second:
      m_TileIndex: 19
      m_TileSpriteIndex: 19
      m_TileMatrixIndex: 0
      m_TileColorIndex: 0
      m_ObjectToInstantiate: {fileID: 0}
      m_TileFlags: 1
      m_ColliderType: 1
  - first: {x: 5, y: -2, z: 0}
    second:
      m_TileIndex: 20
      m_TileSpriteIndex: 20
      m_TileMatrixIndex: 0
      m_TileColorIndex: 0
      m_ObjectToInstantiate: {fileID: 0}
      m_TileFlags: 1
      m_ColliderType: 1
  - first: {x: -1, y: -1, z: 0}
    second:
      m_TileIndex: 7
      m_TileSpriteIndex: 7
      m_TileMatrixIndex: 0
      m_TileColorIndex: 0
      m_ObjectToInstantiate: {fileID: 0}
      m_TileFlags: 1
      m_ColliderType: 1
  - first: {x: 0, y: -1, z: 0}
    second:
      m_TileIndex: 8
      m_TileSpriteIndex: 8
      m_TileMatrixIndex: 0
      m_TileColorIndex: 0
      m_ObjectToInstantiate: {fileID: 0}
      m_TileFlags: 1
      m_ColliderType: 1
  - first: {x: 1, y: -1, z: 0}
    second:
      m_TileIndex: 9
      m_TileSpriteIndex: 9
      m_TileMatrixIndex: 0
      m_TileColorIndex: 0
      m_ObjectToInstantiate: {fileID: 0}
      m_TileFlags: 1
      m_ColliderType: 1
  - first: {x: 2, y: -1, z: 0}
    second:
      m_TileIndex: 10
      m_TileSpriteIndex: 10
      m_TileMatrixIndex: 0
      m_TileColorIndex: 0
      m_ObjectToInstantiate: {fileID: 0}
      m_TileFlags: 1
      m_ColliderType: 1
  - first: {x: 3, y: -1, z: 0}
    second:
      m_TileIndex: 11
      m_TileSpriteIndex: 11
      m_TileMatrixIndex: 0
      m_TileColorIndex: 0
      m_ObjectToInstantiate: {fileID: 0}
      m_TileFlags: 1
      m_ColliderType: 1
  - first: {x: 4, y: -1, z: 0}
    second:
      m_TileIndex: 12
      m_TileSpriteIndex: 12
      m_TileMatrixIndex: 0
      m_TileColorIndex: 0
      m_ObjectToInstantiate: {fileID: 0}
      m_TileFlags: 1
      m_ColliderType: 1
  - first: {x: 5, y: -1, z: 0}
    second:
      m_TileIndex: 13
      m_TileSpriteIndex: 13
      m_TileMatrixIndex: 0
      m_TileColorIndex: 0
      m_ObjectToInstantiate: {fileID: 0}
      m_TileFlags: 1
      m_ColliderType: 1
  - first: {x: -1, y: 0, z: 0}
    second:
      m_TileIndex: 0
      m_TileSpriteIndex: 0
      m_TileMatrixIndex: 0
      m_TileColorIndex: 0
      m_ObjectToInstantiate: {fileID: 0}
      m_TileFlags: 1
      m_ColliderType: 1
  - first: {x: 0, y: 0, z: 0}
    second:
      m_TileIndex: 1
      m_TileSpriteIndex: 1
      m_TileMatrixIndex: 0
      m_TileColorIndex: 0
      m_ObjectToInstantiate: {fileID: 0}
      m_TileFlags: 1
      m_ColliderType: 1
  - first: {x: 1, y: 0, z: 0}
    second:
      m_TileIndex: 2
      m_TileSpriteIndex: 2
      m_TileMatrixIndex: 0
      m_TileColorIndex: 0
      m_ObjectToInstantiate: {fileID: 0}
      m_TileFlags: 1
      m_ColliderType: 1
  - first: {x: 2, y: 0, z: 0}
    second:
      m_TileIndex: 3
      m_TileSpriteIndex: 3
      m_TileMatrixIndex: 0
      m_TileColorIndex: 0
      m_ObjectToInstantiate: {fileID: 0}
      m_TileFlags: 1
      m_ColliderType: 1
  - first: {x: 3, y: 0, z: 0}
    second:
      m_TileIndex: 4
      m_TileSpriteIndex: 4
      m_TileMatrixIndex: 0
      m_TileColorIndex: 0
      m_ObjectToInstantiate: {fileID: 0}
      m_TileFlags: 1
      m_ColliderType: 1
  - first: {x: 4, y: 0, z: 0}
    second:
      m_TileIndex: 5
      m_TileSpriteIndex: 5
      m_TileMatrixIndex: 0
      m_TileColorIndex: 0
      m_ObjectToInstantiate: {fileID: 0}
      m_TileFlags: 1
      m_ColliderType: 1
  - first: {x: 5, y: 0, z: 0}
    second:
      m_TileIndex: 6
      m_TileSpriteIndex: 6
      m_TileMatrixIndex: 0
      m_TileColorIndex: 0
      m_ObjectToInstantiate: {fileID: 0}
      m_TileFlags: 1
      m_ColliderType: 1
  m_AnimatedTiles: {}
  m_TileAssetArray:
  - m_RefCount: 1
    m_Data: {fileID: 11400000, guid: 72f061380600540caa89d78b30cc5509, type: 2}
  - m_RefCount: 1
    m_Data: {fileID: 11400000, guid: 6c3e648b615d24d998512d5257762c7e, type: 2}
  - m_RefCount: 1
    m_Data: {fileID: 11400000, guid: b77f0729f0fb841c88c1f9e8307dce70, type: 2}
  - m_RefCount: 1
    m_Data: {fileID: 11400000, guid: 50d898f921ebc4649a8689eaf16cbda1, type: 2}
  - m_RefCount: 1
    m_Data: {fileID: 11400000, guid: 5e3caf6c8734441929145eba5ab10066, type: 2}
  - m_RefCount: 1
    m_Data: {fileID: 11400000, guid: 1f930dbd27c0747888a56be0713b1f9a, type: 2}
  - m_RefCount: 1
    m_Data: {fileID: 11400000, guid: 10d4dd94527d442cd9dd1e5bb4acec1b, type: 2}
  - m_RefCount: 1
    m_Data: {fileID: 11400000, guid: 1267c589aec3f484f82df2ab5e9b4fcd, type: 2}
  - m_RefCount: 1
    m_Data: {fileID: 11400000, guid: 51dfc460ebacb40b7b3fe6852000a8d7, type: 2}
  - m_RefCount: 1
    m_Data: {fileID: 11400000, guid: e24190e2744e74a429d2d68edef8a2e2, type: 2}
  - m_RefCount: 1
    m_Data: {fileID: 11400000, guid: 208be8d55df6c4ffebe13b9ab2a67b9f, type: 2}
  - m_RefCount: 1
    m_Data: {fileID: 11400000, guid: 8b733dbdc1ade4814bc3f7637e5f2f5c, type: 2}
  - m_RefCount: 1
    m_Data: {fileID: 11400000, guid: a26429a9becb542b8a16467a9f9eb4d1, type: 2}
  - m_RefCount: 1
    m_Data: {fileID: 11400000, guid: db87b3660979541a1a7ca81c7075ac45, type: 2}
  - m_RefCount: 1
    m_Data: {fileID: 11400000, guid: dd039c6d603af4edab5452447839d483, type: 2}
  - m_RefCount: 1
    m_Data: {fileID: 11400000, guid: 0114e5ec445e445ec89ff67325e5479d, type: 2}
  - m_RefCount: 1
    m_Data: {fileID: 11400000, guid: 3e938a6b96d7142f4a2257713dece3b5, type: 2}
  - m_RefCount: 1
    m_Data: {fileID: 11400000, guid: e93dab291799a45e1b2befe574047430, type: 2}
  - m_RefCount: 1
    m_Data: {fileID: 11400000, guid: 623bfa2d1c5134d31b2890f9d3a99513, type: 2}
  - m_RefCount: 1
    m_Data: {fileID: 11400000, guid: 285574705c910498b9a85b734abeb19a, type: 2}
  - m_RefCount: 1
    m_Data: {fileID: 11400000, guid: 1e374626bfb7e418eb5ed2fd48030ce9, type: 2}
  - m_RefCount: 1
    m_Data: {fileID: 11400000, guid: 465cf714c83a64117ab8208358f1cf19, type: 2}
  - m_RefCount: 1
    m_Data: {fileID: 11400000, guid: e15b94c9aaf27455fa6bd589b4d9f719, type: 2}
  - m_RefCount: 1
    m_Data: {fileID: 11400000, guid: ed428f5e329d849a089b5a4993c82472, type: 2}
  - m_RefCount: 1
    m_Data: {fileID: 11400000, guid: f8dbab161dc1b421f929864f67887701, type: 2}
  - m_RefCount: 1
    m_Data: {fileID: 11400000, guid: 228fab5db719948b49e8651430e53bf3, type: 2}
  - m_RefCount: 1
    m_Data: {fileID: 11400000, guid: 0f7d796f818d5483aae503db801aa739, type: 2}
  - m_RefCount: 1
    m_Data: {fileID: 11400000, guid: cdde5073070764068b287617fbd14c4d, type: 2}
  - m_RefCount: 1
    m_Data: {fileID: 11400000, guid: d67c5e1aa86ef4f28bb85901e1916f13, type: 2}
  - m_RefCount: 1
    m_Data: {fileID: 11400000, guid: 2a8f6f35df0f14a199e240d5a23b82a7, type: 2}
  - m_RefCount: 1
    m_Data: {fileID: 11400000, guid: 0be7b37f99dcd4c8ba85ddc2aaa447b5, type: 2}
  - m_RefCount: 1
    m_Data: {fileID: 11400000, guid: 261b489c3eb8b4032add2297bf2c4798, type: 2}
  - m_RefCount: 1
    m_Data: {fileID: 11400000, guid: 25e4b2bb86ee74f22ae37ba90df98dac, type: 2}
  - m_RefCount: 1
    m_Data: {fileID: 11400000, guid: 2ad22c2fff44f4050bd02264f67606d4, type: 2}
  - m_RefCount: 1
    m_Data: {fileID: 11400000, guid: aedda97b8b85c4daeb20b810e4eb2ceb, type: 2}
  - m_RefCount: 1
    m_Data: {fileID: 11400000, guid: d3ad11a42559b4fd3950ba0c1417b5e6, type: 2}
  - m_RefCount: 1
    m_Data: {fileID: 11400000, guid: b0cabd2a65b484c5bb8df7214021d207, type: 2}
  - m_RefCount: 1
    m_Data: {fileID: 11400000, guid: 00a1898560e0849b2b4c85b49c55dd25, type: 2}
  - m_RefCount: 1
    m_Data: {fileID: 11400000, guid: db1fb97371c84434b8bb8414575a68b8, type: 2}
  - m_RefCount: 1
    m_Data: {fileID: 11400000, guid: 9e9bab1377b554e8481b5abebf2d1068, type: 2}
  - m_RefCount: 1
    m_Data: {fileID: 11400000, guid: 0f5e3bdf937b44d2d88c35c251bf5103, type: 2}
  - m_RefCount: 1
    m_Data: {fileID: 11400000, guid: 6808238a3b32140d989168f4e564d40f, type: 2}
  - m_RefCount: 1
    m_Data: {fileID: 11400000, guid: 8e6febe6666034619a6104d6caf6f439, type: 2}
  - m_RefCount: 1
    m_Data: {fileID: 11400000, guid: 398b30f1076604974a9b75f4f0ad9a21, type: 2}
  - m_RefCount: 1
    m_Data: {fileID: 11400000, guid: 648d3913086c04e30930356309909360, type: 2}
  - m_RefCount: 1
    m_Data: {fileID: 11400000, guid: b97868b5940444ad7a2ec2bc8cb60ce7, type: 2}
  - m_RefCount: 1
    m_Data: {fileID: 11400000, guid: 45ea73f413fe04279bb4b8de0bfc4bae, type: 2}
  - m_RefCount: 1
    m_Data: {fileID: 11400000, guid: 5ee92b483a5584d218695e8309ff9395, type: 2}
  - m_RefCount: 1
    m_Data: {fileID: 11400000, guid: 1d8eabcc7a112484c815386ad06da491, type: 2}
  - m_RefCount: 1
    m_Data: {fileID: 11400000, guid: cec012f6b14e84194b7ca472ebe655ff, type: 2}
  - m_RefCount: 1
    m_Data: {fileID: 11400000, guid: 6dd54dcc06aad4c8ebe2e3c5d6899b3b, type: 2}
  - m_RefCount: 1
    m_Data: {fileID: 11400000, guid: 97e2b06faf5b040bda4eed6e1abb6a58, type: 2}
  - m_RefCount: 1
    m_Data: {fileID: 11400000, guid: 5ce33317950814db5b3b7b1de122b8d6, type: 2}
  - m_RefCount: 1
    m_Data: {fileID: 11400000, guid: 6552aa37c074346f3bfd988b4dbf175d, type: 2}
  - m_RefCount: 1
    m_Data: {fileID: 11400000, guid: db49eaf30276447209e0e9096c12f91a, type: 2}
  - m_RefCount: 1
    m_Data: {fileID: 11400000, guid: ff3fbc8a3baef436ba1b1264b99dc5fe, type: 2}
  m_TileSpriteArray:
  - m_RefCount: 1
    m_Data: {fileID: 21300000, guid: 7486786745daa47c79b271c886878aa8, type: 3}
  - m_RefCount: 1
    m_Data: {fileID: 21300002, guid: 7486786745daa47c79b271c886878aa8, type: 3}
  - m_RefCount: 1
    m_Data: {fileID: 21300004, guid: 7486786745daa47c79b271c886878aa8, type: 3}
  - m_RefCount: 1
    m_Data: {fileID: 21300006, guid: 7486786745daa47c79b271c886878aa8, type: 3}
  - m_RefCount: 1
    m_Data: {fileID: 21300008, guid: 7486786745daa47c79b271c886878aa8, type: 3}
  - m_RefCount: 1
    m_Data: {fileID: 21300010, guid: 7486786745daa47c79b271c886878aa8, type: 3}
  - m_RefCount: 1
    m_Data: {fileID: 21300012, guid: 7486786745daa47c79b271c886878aa8, type: 3}
  - m_RefCount: 1
    m_Data: {fileID: 21300014, guid: 7486786745daa47c79b271c886878aa8, type: 3}
  - m_RefCount: 1
    m_Data: {fileID: 21300016, guid: 7486786745daa47c79b271c886878aa8, type: 3}
  - m_RefCount: 1
    m_Data: {fileID: 21300018, guid: 7486786745daa47c79b271c886878aa8, type: 3}
  - m_RefCount: 1
    m_Data: {fileID: 21300020, guid: 7486786745daa47c79b271c886878aa8, type: 3}
  - m_RefCount: 1
    m_Data: {fileID: 21300022, guid: 7486786745daa47c79b271c886878aa8, type: 3}
  - m_RefCount: 1
    m_Data: {fileID: 21300024, guid: 7486786745daa47c79b271c886878aa8, type: 3}
  - m_RefCount: 1
    m_Data: {fileID: 21300026, guid: 7486786745daa47c79b271c886878aa8, type: 3}
  - m_RefCount: 1
    m_Data: {fileID: 21300028, guid: 7486786745daa47c79b271c886878aa8, type: 3}
  - m_RefCount: 1
    m_Data: {fileID: 21300030, guid: 7486786745daa47c79b271c886878aa8, type: 3}
  - m_RefCount: 1
    m_Data: {fileID: 21300032, guid: 7486786745daa47c79b271c886878aa8, type: 3}
  - m_RefCount: 1
    m_Data: {fileID: 21300034, guid: 7486786745daa47c79b271c886878aa8, type: 3}
  - m_RefCount: 1
    m_Data: {fileID: 21300036, guid: 7486786745daa47c79b271c886878aa8, type: 3}
  - m_RefCount: 1
    m_Data: {fileID: 21300038, guid: 7486786745daa47c79b271c886878aa8, type: 3}
  - m_RefCount: 1
    m_Data: {fileID: 21300040, guid: 7486786745daa47c79b271c886878aa8, type: 3}
  - m_RefCount: 1
    m_Data: {fileID: 21300042, guid: 7486786745daa47c79b271c886878aa8, type: 3}
  - m_RefCount: 1
    m_Data: {fileID: 21300044, guid: 7486786745daa47c79b271c886878aa8, type: 3}
  - m_RefCount: 1
    m_Data: {fileID: 21300046, guid: 7486786745daa47c79b271c886878aa8, type: 3}
  - m_RefCount: 1
    m_Data: {fileID: 21300048, guid: 7486786745daa47c79b271c886878aa8, type: 3}
  - m_RefCount: 1
    m_Data: {fileID: 21300050, guid: 7486786745daa47c79b271c886878aa8, type: 3}
  - m_RefCount: 1
    m_Data: {fileID: 21300052, guid: 7486786745daa47c79b271c886878aa8, type: 3}
  - m_RefCount: 1
    m_Data: {fileID: 21300054, guid: 7486786745daa47c79b271c886878aa8, type: 3}
  - m_RefCount: 1
    m_Data: {fileID: 21300056, guid: 7486786745daa47c79b271c886878aa8, type: 3}
  - m_RefCount: 1
    m_Data: {fileID: 21300058, guid: 7486786745daa47c79b271c886878aa8, type: 3}
  - m_RefCount: 1
    m_Data: {fileID: 21300060, guid: 7486786745daa47c79b271c886878aa8, type: 3}
  - m_RefCount: 1
    m_Data: {fileID: 21300062, guid: 7486786745daa47c79b271c886878aa8, type: 3}
  - m_RefCount: 1
    m_Data: {fileID: 21300064, guid: 7486786745daa47c79b271c886878aa8, type: 3}
  - m_RefCount: 1
    m_Data: {fileID: 21300066, guid: 7486786745daa47c79b271c886878aa8, type: 3}
  - m_RefCount: 1
    m_Data: {fileID: 21300068, guid: 7486786745daa47c79b271c886878aa8, type: 3}
  - m_RefCount: 1
    m_Data: {fileID: 21300070, guid: 7486786745daa47c79b271c886878aa8, type: 3}
  - m_RefCount: 1
    m_Data: {fileID: 21300072, guid: 7486786745daa47c79b271c886878aa8, type: 3}
  - m_RefCount: 1
    m_Data: {fileID: 21300074, guid: 7486786745daa47c79b271c886878aa8, type: 3}
  - m_RefCount: 1
    m_Data: {fileID: 21300076, guid: 7486786745daa47c79b271c886878aa8, type: 3}
  - m_RefCount: 1
    m_Data: {fileID: 21300078, guid: 7486786745daa47c79b271c886878aa8, type: 3}
  - m_RefCount: 1
    m_Data: {fileID: 21300080, guid: 7486786745daa47c79b271c886878aa8, type: 3}
  - m_RefCount: 1
    m_Data: {fileID: 21300082, guid: 7486786745daa47c79b271c886878aa8, type: 3}
  - m_RefCount: 1
    m_Data: {fileID: 21300084, guid: 7486786745daa47c79b271c886878aa8, type: 3}
  - m_RefCount: 1
    m_Data: {fileID: 21300086, guid: 7486786745daa47c79b271c886878aa8, type: 3}
  - m_RefCount: 1
    m_Data: {fileID: 21300088, guid: 7486786745daa47c79b271c886878aa8, type: 3}
  - m_RefCount: 1
    m_Data: {fileID: 21300090, guid: 7486786745daa47c79b271c886878aa8, type: 3}
  - m_RefCount: 1
    m_Data: {fileID: 21300092, guid: 7486786745daa47c79b271c886878aa8, type: 3}
  - m_RefCount: 1
    m_Data: {fileID: 21300094, guid: 7486786745daa47c79b271c886878aa8, type: 3}
  - m_RefCount: 1
    m_Data: {fileID: 21300096, guid: 7486786745daa47c79b271c886878aa8, type: 3}
  - m_RefCount: 1
    m_Data: {fileID: 21300098, guid: 7486786745daa47c79b271c886878aa8, type: 3}
  - m_RefCount: 1
    m_Data: {fileID: 21300100, guid: 7486786745daa47c79b271c886878aa8, type: 3}
  - m_RefCount: 1
    m_Data: {fileID: 21300102, guid: 7486786745daa47c79b271c886878aa8, type: 3}
  - m_RefCount: 1
    m_Data: {fileID: 21300104, guid: 7486786745daa47c79b271c886878aa8, type: 3}
  - m_RefCount: 1
    m_Data: {fileID: 21300106, guid: 7486786745daa47c79b271c886878aa8, type: 3}
  - m_RefCount: 1
    m_Data: {fileID: 21300108, guid: 7486786745daa47c79b271c886878aa8, type: 3}
  - m_RefCount: 1
    m_Data: {fileID: 21300110, guid: 7486786745daa47c79b271c886878aa8, type: 3}
  m_TileMatrixArray:
  - m_RefCount: 56
    m_Data:
      e00: 1
      e01: 0
      e02: 0
      e03: 0
      e10: 0
      e11: 1
      e12: 0
      e13: 0
      e20: 0
      e21: 0
      e22: 1
      e23: 0
      e30: 0
      e31: 0
      e32: 0
      e33: 1
  m_TileColorArray:
  - m_RefCount: 56
    m_Data: {r: 1, g: 1, b: 1, a: 1}
  m_AnimationFrameRate: 1
  m_Color: {r: 1, g: 1, b: 1, a: 1}
  m_Origin: {x: -1, y: -7, z: 0}
  m_Size: {x: 7, y: 8, z: 1}
  m_TileAnchor: {x: 0.5, y: 0.5, z: 0}
  m_TileOrientation: 0
  m_TileOrientationMatrix:
    e00: 1
    e01: 0
    e02: 0
    e03: 0
    e10: 0
    e11: 1
    e12: 0
    e13: 0
    e20: 0
    e21: 0
    e22: 1
    e23: 0
    e30: 0
    e31: 0
    e32: 0
    e33: 1
--- !u!483693784 &4623460439504268183
TilemapRenderer:
  m_ObjectHideFlags: 0
  m_CorrespondingSourceObject: {fileID: 0}
  m_PrefabInstance: {fileID: 0}
  m_PrefabAsset: {fileID: 0}
  m_GameObject: {fileID: 1297573780652862320}
  m_Enabled: 0
  m_CastShadows: 0
  m_ReceiveShadows: 0
  m_DynamicOccludee: 0
  m_MotionVectors: 1
  m_LightProbeUsage: 0
  m_ReflectionProbeUsage: 0
  m_RenderingLayerMask: 1
  m_RendererPriority: 0
  m_Materials:
  - {fileID: 10754, guid: 0000000000000000f000000000000000, type: 0}
  m_StaticBatchInfo:
    firstSubMesh: 0
    subMeshCount: 0
  m_StaticBatchRoot: {fileID: 0}
  m_ProbeAnchor: {fileID: 0}
  m_LightProbeVolumeOverride: {fileID: 0}
  m_ScaleInLightmap: 1
  m_PreserveUVs: 0
  m_IgnoreNormalsForChartDetection: 0
  m_ImportantGI: 0
  m_StitchLightmapSeams: 0
  m_SelectedEditorRenderState: 0
  m_MinimumChartSize: 4
  m_AutoUVMaxDistance: 0.5
  m_AutoUVMaxAngle: 89
  m_LightmapParameters: {fileID: 0}
  m_SortingLayerID: 0
  m_SortingLayer: 0
  m_SortingOrder: 0
  m_ChunkSize: {x: 32, y: 32, z: 32}
  m_ChunkCullingBounds: {x: 0, y: 0, z: 0}
  m_MaxChunkCount: 16
  m_MaxFrameAge: 16
  m_SortOrder: 0
  m_Mode: 0
  m_DetectChunkCullingBounds: 0
  m_MaskInteraction: 0
--- !u!1 &6334937739245675350
GameObject:
  m_ObjectHideFlags: 0
  m_CorrespondingSourceObject: {fileID: 0}
  m_PrefabInstance: {fileID: 0}
  m_PrefabAsset: {fileID: 0}
  serializedVersion: 6
  m_Component:
  - component: {fileID: 915688239892500397}
  - component: {fileID: 4748464559339985634}
  m_Layer: 31
  m_Name: Doors
  m_TagString: Untagged
  m_Icon: {fileID: 0}
  m_NavMeshLayer: 0
  m_StaticEditorFlags: 0
  m_IsActive: 1
--- !u!4 &915688239892500397
Transform:
  m_ObjectHideFlags: 0
  m_CorrespondingSourceObject: {fileID: 0}
  m_PrefabInstance: {fileID: 0}
  m_PrefabAsset: {fileID: 0}
  m_GameObject: {fileID: 6334937739245675350}
  m_LocalRotation: {x: 0, y: 0, z: 0, w: 1}
  m_LocalPosition: {x: 0, y: 0, z: 0}
  m_LocalScale: {x: 1, y: 1, z: 1}
  m_Children:
  - {fileID: 7448129329234374378}
  m_Father: {fileID: 0}
  m_RootOrder: 0
  m_LocalEulerAnglesHint: {x: 0, y: 0, z: 0}
--- !u!156049354 &4748464559339985634
Grid:
  m_ObjectHideFlags: 0
  m_CorrespondingSourceObject: {fileID: 0}
  m_PrefabInstance: {fileID: 0}
  m_PrefabAsset: {fileID: 0}
  m_GameObject: {fileID: 6334937739245675350}
  m_Enabled: 1
  m_CellSize: {x: 1, y: 1, z: 0}
  m_CellGap: {x: 0, y: 0, z: 0}
  m_CellLayout: 0
  m_CellSwizzle: 0
--- !u!114 &114478757283897586
MonoBehaviour:
  m_ObjectHideFlags: 0
  m_CorrespondingSourceObject: {fileID: 0}
  m_PrefabInstance: {fileID: 0}
  m_PrefabAsset: {fileID: 0}
  m_GameObject: {fileID: 0}
  m_Enabled: 1
  m_EditorHideFlags: 0
  m_Script: {fileID: 12395, guid: 0000000000000000e000000000000000, type: 0}
  m_Name: Palette Settings
  m_EditorClassIdentifier: 
  cellSizing: 0
